{
  "project_info": {
    "project_number": "812645152404",
    "firebase_url": "https://adtadigital.firebaseio.com",
    "project_id": "adtadigital",
    "storage_bucket": "adtadigital.appspot.com"
  },
  "client": [
    {
      "client_info": {
        "mobilesdk_app_id": "1:812645152404:android:56ee94ce99d650fe",
        "android_client_info": {
          "package_name": "com.example.masrobot.adtadigital"
        }
      },
      "oauth_client": [
        {
          "client_id": "812645152404-qs34rkrd872133hidvsatoj14t20mi3r.apps.googleusercontent.com",
          "client_type": 1,
          "android_info": {
            "package_name": "com.example.masrobot.adtadigital",
            "certificate_hash": "8c3df5e74b0c423839c10900025c43de469ce5ba"
          }
        },
        {
          "client_id": "812645152404-bsvkvttglkkcu0p5kefnvmer36ujdogm.apps.googleusercontent.com",
          "client_type": 3
        }
      ],
      "api_key": [
        {
          "current_key": "AIzaSyAFP2t78Wvy4EnfsqOwQFKPmSTRX2X9dgM"
        }
      ],
      "services": {
        "analytics_service": {
          "status": 1
        },
        "appinvite_service": {
          "status": 2,
          "other_platform_oauth_client": [
            {
              "client_id": "812645152404-bsvkvttglkkcu0p5kefnvmer36ujdogm.apps.googleusercontent.com",
              "client_type": 3
            }
          ]
        },
        "ads_service": {
          "status": 2
        }
      }
    }
  ],
  "configuration_version": "1"
}